\relax 
\providecommand\zref@newlabel[2]{}
\@writefile{toc}{\contentsline {paragraph}{The Sample Set $S$}{2}}
\@writefile{toc}{\contentsline {paragraph}{The Event $E$}{2}}
\@writefile{toc}{\contentsline {paragraph}{The probability of Event $E$ occurring}{2}}
\@writefile{toc}{\contentsline {paragraph}{Two events are Disjoint}{2}}
\@writefile{toc}{\contentsline {paragraph}{Two events are Independent}{2}}
\@writefile{toc}{\contentsline {paragraph}{The General Product Rule}{3}}
\@writefile{toc}{\contentsline {paragraph}{The probability of $E_{1}$ given $E_{2}$}{3}}
\@writefile{toc}{\contentsline {paragraph}{Probability in a Bernoulli Trial}{3}}
\@writefile{toc}{\contentsline {paragraph}{Expected (average) value}{3}}
\@writefile{toc}{\contentsline {paragraph}{Expected value in a Bernoulli trial}{3}}
\newlabel{LastPage}{{}{9}}
\xdef\lastpage@lastpage{9}
\gdef\lastpage@lastpageHy{}
