{
    "laadan" : 
    {
        "name" : "Láadan",
        "videos" : [
            { "name" : "How to say 'Merry Christmas' in Láadan", "creator" : "Rachel Singh", "YouTube ID" : "bM0mzJmwTlE", "date" : "2019-01-05" },
            { "name" : "Hathóol Lom - Month Song", "creator" : "Rachel Singh", "YouTube ID" : "HqA-e1qJG-Q", "date" : "2018-12-11" },
            { "name" : "The Communipaths by Suzette Haden Elgin - Full book online", "creator" : "Rachel Singh", "YouTube ID" : "6cnaJnNx6QE", "date" : "2018-11-16" },
            { "name" : "Behind Every Great One - a game about routine and depression", "creator" : "Rachel Singh", "YouTube ID" : "fUrJca9l3VQ", "date" : "2018-10-05" },
            { "name" : "Articles about Láadan in 1985 - 1986 Hot Wire magazine", "creator" : "Rachel Singh", "YouTube ID" : "7_O5vuz2f_E", "date" : "2018-06-30" },
            { "name" : "Miscellaneous Láadan news/notes ~ film adaptation, poetry generator, queer vocab", "creator" : "Rachel Singh", "YouTube ID" : "Sju3-WL-lvU", "date" : "2018-06-23" },
            { "name" : "A Native Tongue TV Show??", "creator" : "Rachel Singh", "YouTube ID" : "c2ovffDfGDs", "date" : "2018-06-16" },
            { "name" : "Wohiya Wodedide ShóSho Bethu", "creator" : "Rachel Singh", "YouTube ID" : "otQhJ-F9p7c", "date" : "2018-06-02" },
            { "name" : "Rachel's Láadan Vlog #10 - Suzette Haden Elgin's Novels", "creator" : "Rachel Singh", "YouTube ID" : "PJex3U9LeTU", "date" : "2018-05-05" },
            { "name" : "Goal and Source markers (to, from) - Quick Láadan Grammar", "creator" : "Rachel Singh", "YouTube ID" : "BQCJuxS3G9I", "date" : "2018-04-21" },
            { "name" : "Rachel's Láadan Vlog #8 - Making changes to Láadan", "creator" : "Rachel Singh", "YouTube ID" : "_Cckg-bD1sM", "date" : "2018-06-09" },
            { "name" : "Rachel's Láadan Vlog #7 - Common complaints about Láadan", "creator" : "Rachel Singh", "YouTube ID" : "q4-4gQH9XnI", "date" : "2018-04-14" },
            { "name" : "Negating verbs - Quick Láadan Grammar", "creator" : "Rachel Singh", "YouTube ID" : "fzChHOLu2Uk", "date" : "2018-04-07" },
            { "name" : "Speech act morphemes and extensions - Quick Láadan Grammar", "creator" : "Rachel Singh", "YouTube ID" : "a0kCHkeEZkk", "date" : "2018-03-24" },
            { "name" : "Rachel's Láadan Vlog #6 - Suzette Haden Elgin's WisCon 82 talk - pre Láadan", "creator" : "Rachel Singh", "YouTube ID" : "HSZFJKvqJUA", "date" : "2018-04-17" },
            { "name" : "Birthsong, by Suzette Haden Elgin - Sheet music & song", "creator" : "Rachel Singh", "YouTube ID" : "BzSqqulYmxo", "date" : "2018-03-13" },
            { "name" : "10 words you didn't know you needed in your life", "creator" : "Rachel Singh", "YouTube ID" : "GxnX-UQ7kHE", "date" : "2017-10-07" },
            { "name" : "Rachel's Láadan Vlog #5 - I'm sick. Also, there's a Láadan Discord!", "creator" : "Rachel Singh", "YouTube ID" : "CNj3ZHkV9j4", "date" : "2017-10-07" },
            { "name" : "Rachel's Láadan Vlog #4 - Láadan club & Arrival", "creator" : "Rachel Singh", "YouTube ID" : "5ssZAX5NUIw", "date" : "2016-11-19" },
            { "name" : "Hidel, théle, widadith, shinehal, raneran, i shida", "creator" : "Rachel Singh", "YouTube ID" : "nQZvoL4skaM", "date" : "2016-08-15" },
            { "name" : "Láadan Classroom - Extra - Translating your name into Láadan", "creator" : "Rachel Singh", "YouTube ID" : "fhr36KB6agc", "date" : "2016-05-16" },
            { "name" : "Láadan Classroom - Lesson 3: Conjugations and Objects", "creator" : "Rachel Singh", "YouTube ID" : "XrgqK30Vuf8", "date" : "2016-05-16" },
            { "name" : "Láadan Classroom - Lesson 2: Tenses, Yes/No Questions, and Pronouns", "creator" : "Rachel Singh", "YouTube ID" : "WPJOpij-mLc", "date" : "2016-05-16" },
            { "name" : "Láadan Classroom - Lesson 1: Basic Sentences", "creator" : "Rachel Singh", "YouTube ID" : "lvo3ng16RaM", "date" : "2016-05-16" },
            { "name" : "With, withid, e bebáa? - Woman, man, or what?", "creator" : "Rachel Singh", "YouTube ID" : "ZKwVS1tFbEs", "date" : "2016-01-06" },
            { "name" : "Óowamid RPG", "creator" : "Rachel Singh", "YouTube ID" : "guI7Ed_PmB4", "date" : "2015-11-30" },
            { "name" : "Rabil sháal - The not-fun day", "creator" : "Rachel Singh", "YouTube ID" : "st5uOLpl4hY", "date" : "2016-01-05" },
            { "name" : "Rachel's Láadan Vlog #2 - Why learn Láadan?", "creator" : "Rachel Singh", "YouTube ID" : "IrGPoHYdhhM", "date" : "2015-09-06" },
            { "name" : "Sounds of Láadan", "creator" : "Rachel Singh", "YouTube ID" : "c5gVhg-nScY", "date" : "2015-09-07" },
            { "name" : "Rachel's Láadan Vlog #1 - If you build it, will they come?", "creator" : "Rachel Singh", "YouTube ID" : "MCl28HEAM9c", "date" : "2015-09-05" }
        ]
    },
    "esperanto" :
    {
        "name" : "Esperanto",
        "videos" : [
            { "name" : "Bestaĉo - Filmeto", "creator" : "Rachel Singh", "YouTube ID" : "C6xNIgnmSj0", "date" : "2018-06-24" },
            { "name" : "Ni Ludu Kune - OpenArena", "creator" : "Rachel Singh", "YouTube ID" : "xUKi408-t1U", "date" : "2018-06-16" },
            { "name" : "Ni Ludu Kune - Overwatch - Rejcx kaj Tea", "creator" : "Rachel Singh", "YouTube ID" : "-f5ULWx3AFY", "date" : "2018-06-09" },
            { "name" : "Mi iomete tradukis Manjaro Linukson en Esperanton", "creator" : "Kurt Fenikso", "YouTube ID" : "HDwogMy0lmY", "date" : "2018-05-26" },
            { "name" : "Serĉo de la Reĝo - King's Quest I", "creator" : "Rachel Singh", "YouTube ID" : "k0ny-T2XPPk", "date" : "2018-05-19" },
            { "name" : "How FOSS and Esperanto Help Each Other", "creator" : "Kurt Fenikso", "YouTube ID" : "XCxKcZ2GzVM", "date" : "2018-05-12" },
            { "name" : "La Nova Amiko - Filmeto", "creator" : "Rachel Singh", "YouTube ID" : "gIX5wyj1F0E", "date" : "2018-03-30" },
            { "name" : "Ni Ludu: They Bleed Pixels C1", "creator" : "Kurt Fenikso", "YouTube ID" : "nz3dNZNcf-0", "date" : "2018-01-19" },
            { "name" : "Kiel ŝanĝi nomojn de datumportiloj per Linukso Mento", "creator" : "Kurt Fenikso", "YouTube ID" : "B91vfv110CM", "date" : "2017-10-25" },
            { "name" : "Kiel krei & kunpremi TAR pilkon per Linukso Mento", "creator" : "Kurt Fenikso", "YouTube ID" : "e8cV_qMMWsk", "date" : "2017-10-20" },
            { "name" : "Kiel mi renkontis Bertilon", "creator" : "Kurt Fenikso", "YouTube ID" : "QbbErycm88s", "date" : "2017-10-10" },
            { "name" : "Verbs in Latin vs Esperanto", "creator" : "Kurt Fenikso", "YouTube ID" : "qtpxS2dXrcI", "date" : "2017-10-09" },
            { "name" : "Colours in Esperanto & Toki Pona", "creator" : "Kurt Fenikso", "YouTube ID" : "R-AN07s9HRI", "date" : "2017-08-13" },
            { "name" : "Talking About My GF Learning Esperanto", "creator" : "Kurt Fenikso", "YouTube ID" : "R5kyBS61nH8", "date" : "2017-08-08" },
            { "name" : "Esperanto's Zamenhoff vs. Ido's Couturat", "creator" : "Rachel Singh", "YouTube ID" : "b4tb_dmghhY", "date" : "2017-08-06" },
            { "name" : "Annabel Lee de Edgar A. Poe Tradukita kaj Legita en Esperanto", "creator" : "Kurt Fenikso", "YouTube ID" : "xj3-dGfY3AA", "date" : "2017-07-30" },
            { "name" : "Vlogo pri poezio (Mi legis mian poemon)", "creator" : "Kurt Fenikso", "YouTube ID" : "Nc0YEWuwN7s", "date" : "2017-07-22" },
            { "name" : "La Fundamento de Trovanta Mi Mem per Esperantujo (Malgracia Filmeto)", "creator" : "Rachel Singh", "YouTube ID" : "GjCfoYfBUTc", "date" : "2017-07-15" },
            { "name" : "Rej & Kuĉjo ĉe la parko por 4a julio", "creator" : "Rachel Singh", "YouTube ID" : "WswVVwpA_Rw", "date" : "2017-07-05" },
            { "name" : "Chris reviews &quot;Easy Esperanto Reader&quot; by Myrtis Smith", "creator" : "Chris Mason", "YouTube ID" : "esJwcaQ3pTQ", "date" : "2017-05-06" },
            { "name" : "ESPERANTO KANSAS CITY iras al la bestoĝardeno! - Paralela Universo 2016", "creator" : "Rachel Singh", "YouTube ID" : "_nlVj9C3KLs", "date" : "2016-08-21" },
            { "name" : "ESPERANTO KANSAS CITY iras al &quot;Up Down&quot; videoludejo & drinkejo", "creator" : "Rachel Singh", "YouTube ID" : "N9CYYXjn0Z0", "date" : "2016-09-18" },
            { "name" : "Meowtropolis - Katkafejo en Seattle, WA", "creator" : "Rachel Singh", "YouTube ID" : "7KFYqWprpUQ", "date" : "2016-12-30" },
            { "name" : "Hejmo", "creator" : "Rachel Singh", "YouTube ID" : "4hi6oF_Iwok", "date" : "2016-08-15" },
            { "name" : "Asexuality, esperante.", "creator" : "Rachel Singh", "YouTube ID" : "rM-PaUQ0MOc", "date" : "2015-12-28" },
            { "name" : "Antaŭmontro de Nokto de la Vivantaj Mortintoj", "creator" : "Rachel Singh", "YouTube ID" : "RsFQBlaaoXU", "date" : "2015-07-21" },
            { "name" : "Dormanta Belulino", "creator" : "Rachel Singh", "YouTube ID" : "fQyWCKdoNhs", "date" : "2016-07-20" },
            { "name" : "Incubus, laŭvorte", "creator" : "Rachel Singh", "YouTube ID" : "XTLk96Shg9U", "date" : "2016-05-24" },
            { "name" : "Ni Ludu: Lakeview Cabin terurludo", "creator" : "Rachel Singh", "YouTube ID" : "TXijVa7jPpo", "date" : "2015-04-12" },
            { "name" : "La Hundo Perdita - RPG Maker 2", "creator" : "Rachel Singh", "YouTube ID" : "NZn1kW1jtcU", "date" : "2014-05-20" },
            { "name" : "Aventuro de la Hipokampo", "creator" : "Rachel Singh", "YouTube ID" : "WYsstNtaLXs", "date" : "2017-04-04" },
            { "name" : "Doĉjo kaj Renjo promenas tra parko", "creator" : "Rachel Singh", "YouTube ID" : "jlC4qSjrGbI", "date" : "2014-04-04" },
            { "name" : "Maniac Mansion Deluxe tradukita al Esperanto", "creator" : "Rachel Singh", "YouTube ID" : "rAL48IAbB_U", "date" : "2014-03-13" },
            { "name" : "Princino Suzana kaj Kavaliro Rebeka - Filmeto", "creator" : "Rachel Singh", "YouTube ID" : "LKjAGCiz088", "date" : "2014-07-27" },
            { "name" : "Detektivo Franko - Filmeto", "creator" : "Rachel Singh", "YouTube ID" : "qayYGkaJtmY", "date" : "2014-07-27" },
            { "name" : "Stulta Poŝmonstro", "creator" : "Rachel Singh", "YouTube ID" : "rOl-_TEICAs", "date" : "2014-05-26" },
            { "name" : "Antaŭmontro de Kuraĝa Knabino", "creator" : "Rachel Singh", "YouTube ID" : "6sLFS862lDE", "date" : "2014-05-18" },
            { "name" : "La Perditaj Vikingoj / The Lost Vikings - ROM Hack", "creator" : "Rachel Singh", "YouTube ID" : "sbwV_DsM4MQ", "date" : "2014-03-12" },
            { "name" : "Trezoro de la Drako RPG", "creator" : "Rachel Singh", "YouTube ID" : "OqPpBorcDKA", "date" : "2014-01-04" },
            { "name" : "Du Katoj: Manĝaĵoj", "creator" : "Rachel Singh", "YouTube ID" : "ygALzP5iQXc", "date" : "2014-01-08" },
            { "name" : "Aventuristo", "creator" : "Rachel Singh", "YouTube ID" : "1ACeFvVIUBw", "date" : "2013-11-06" }
        ]
    },
    "ido" :
    {
        "name" : "Ido",
        "videos" : [
            { "name" : "Esperanto's Zamenhoff vs. Ido's Couturat", "creator" : "Rachel Singh", "YouTube ID" : "b4tb_dmghhY", "date" : "2017-08-06" },
            { "name" : "History of the Ido Language, and a little about Esperanto", "creator" : "Rachel Singh", "YouTube ID" : "APqDiWLPoNs", "date" : "2015-12-25" },
            { "name" : "Alfabeto Kansono", "creator" : "Rachel Singh", "YouTube ID" : "Kp5rvVccoHw", "date" : "2016-08-20" },
            { "name" : "La Drako de la Turmo RPG", "creator" : "Rachel Singh", "YouTube ID" : "DgYIc9WVxWY", "date" : "2014-01-05" },
            { "name" : "Ido Correlatives #2 - What?", "creator" : "Rachel Singh", "YouTube ID" : "EazDnWvUPDg", "date" : "2014-03-11" },
            { "name" : "Ido Correlatives #1 - Who?", "creator" : "Rachel Singh", "YouTube ID" : "3TLyjzKDP0E", "date" : "2014-01-20" },
            { "name" : "Animalo Rejlando", "creator" : "Rachel Singh", "YouTube ID" : "9fVQmeUgVf8", "date" : "2013-12-15" }
        ]
    },
    "toki pona" :
    {
        "name" : "Toki Pona",
        "videos" : [
            { "name" : "Colours in Esperanto & Toki Pona", "creator" : "Kurt Fenikso", "YouTube ID" : "R-AN07s9HRI", "date" : "2017-08-13" }
        ]
    },
    "other" :
    {
        "name" : "Other",
        "videos" : [
            { "name" : "What kind of videos do you want to see?", "creator" : "Rachel Singh", "YouTube ID" : "hc3cwqt7pE0", "date" : "2018-09-03" },
            { "name" : "Conlang Arcade update", "creator" : "Rachel Singh", "YouTube ID" : "NlbGgFqjf5k", "date" : "2018-06-26" },
            { "name" : "Help wanted!", "creator" : "Rachel Singh", "YouTube ID" : "V-7ov6KEdk4", "date" : "2018-06-13" },
            { "name" : "Áya Dan conlang channel", "creator" : "Rachel Singh", "YouTube ID" : "eMCXrFuWMhc", "date" : "2018-04-02" }
        ]
    }
}



