[
  {
    "láadan": "-di",
    "english": "to",
    "marker type": "goal marker"
  },
  {
    "láadan": "-de",
    "english": "from",
    "marker type": "source marker"
  },
  {
    "láadan": "-den",
    "english": "with",
    "marker type": "associated with, neutral"
  },
  {
    "láadan": "-dan",
    "english": "with",
    "marker type": "associated with, with pleasure"
  },
  {
    "láadan": "-nan",
    "english": "per",
    "marker type": "instrument marker"
  },
  {
    "láadan": "-da",
    "english": "for",
    "marker type": "beneficiary marker, voluntarily"
  },
  {
    "láadan": "-dá",
    "english": "by force for",
    "marker type": "beneficiary marker, by force"
  },
  {
    "láadan": "-dáa",
    "english": "obligatorily for",
    "marker type": "beneficiary marker, obligatory"
  },
  {
    "láadan": "-daá",
    "english": "accidentally for",
    "marker type": "beneficiary marker, accidentally"
  },
  {
    "láadan": "-ha",
    "english": "at",
    "marker type": "location in space"
  },
  {
    "láadan": "-ya",
    "english": "at",
    "marker type": "location in time"
  },
  {
    "láadan": "-nal",
    "english": "manner",
    "marker type": "the manner in which something is done"
  },
  {
    "láadan": "-wáan",
    "english": "reason",
    "marker type": "the reason for which something is done. Bíi eril yime be óowamidewáan wa. She ran because of the dragon."
  },
  {
    "láadan": "-wan",
    "english": "purpose",
    "marker type": "the purpose for which something is done. Bíi eril sháad be hohaledi halewan wa. She went to the office to work."
  },
  {
    "láadan": "-tha",
    "english": "by reason of birth",
    "marker type": ""
  },
  {
    "láadan": "-thi",
    "english": "by reason of chance",
    "marker type": ""
  },
  {
    "láadan": "-the",
    "english": "for unknown or unacknowledged reason",
    "marker type": ""
  },
  {
    "láadan": "-thu",
    "english": "the false possessive",
    "marker type": "the false (“partitive”) possessive, as in “a dress of velvet”"
  },
  {
    "láadan": "-tho",
    "english": "other",
    "marker type": "purchase, gift, law, custom, et cetera"
  },
  {
    "láadan": "-mu",
    "english": "via",
    "marker type": "path marker. Bíi sháad le bethedi wilimu óobe wa. I'm going home along the river."
  }
]
