[
  {
    "láadan": "eril",
    "english": "in the past",
    "description": "",
    "classification": "tense",
    "word breakdown": "",
    "notes": ""
  },
  {
    "láadan": "aril",
    "english": "in the future",
    "description": "",
    "classification": "tense",
    "word breakdown": "",
    "notes": ""
  },
  {
    "láadan": "ril",
    "english": "now",
    "description": "",
    "classification": "tense",
    "word breakdown": "",
    "notes": ""
  },
  {
    "láadan": "eríli",
    "english": "in the far past",
    "description": "",
    "classification": "tense",
    "word breakdown": "",
    "notes": ""
  },
  {
    "láadan": "aríli",
    "english": "in the far future",
    "description": "",
    "classification": "tense",
    "word breakdown": "",
    "notes": ""
  },
  {
    "láadan": "rilrili",
    "english": "hypothetically",
    "description": "",
    "classification": "tense",
    "word breakdown": "",
    "notes": ""
  }
]
